<?xml version="1.0" encoding="UTF-8"?>
<gexf xmlns="http://www.gexf.net/1.1draft" version="1.1" xmlns:viz="http://www.gexf.net/1.2draft/viz" xmlns:xsi="http://www.w3.org/2001/XMLSchema-instance" xsi:schemaLocation="http://www.gexf.net/1.2draft http://www.gexf.net/1.2draft/gexf.xsd">
  <meta lastmodifieddate="2015-07-11">
    <creator>Gephi 0.8.1</creator>
    <description></description>
  </meta>
  <graph defaultedgetype="undirected" mode="static">
    <attributes class="node" mode="static">
      <attribute id="type" title="type" type="string"></attribute>
    </attributes>
    <nodes>
      <node id="154" label="Essilor International">
        <attvalues>
          <attvalue for="type" value="Company"></attvalue>
        </attvalues>
        <viz:size value="5.0"></viz:size>
        <viz:position x="291.09378" y="197.8467" z="0.0"></viz:position>
        <viz:color r="29" g="251" b="251"></viz:color>
      </node>
      <node id="204" label="Helene Ploix">
        <attvalues>
          <attvalue for="type" value="Administrator"></attvalue>
        </attvalues>
        <viz:size value="32.0"></viz:size>
        <viz:position x="-3.2152512" y="-186.47542" z="0.0"></viz:position>
        <viz:color r="251" g="29" b="29"></viz:color>
      </node>
      <node id="341" label="Michel Cicurel">
        <attvalues>
          <attvalue for="type" value="Administrator"></attvalue>
        </attvalues>
        <viz:size value="23.0"></viz:size>
        <viz:position x="15.107215" y="-299.53162" z="0.0"></viz:position>
        <viz:color r="251" g="29" b="29"></viz:color>
      </node>
      <node id="346" label="Michel Pebereau">
        <attvalues>
          <attvalue for="type" value="Administrator"></attvalue>
        </attvalues>
        <viz:size value="50.0"></viz:size>
        <viz:position x="-164.68335" y="6.796951" z="0.0"></viz:position>
        <viz:color r="251" g="29" b="29"></viz:color>
      </node>
      <node id="208" label="Henri Lachmann">
        <attvalues>
          <attvalue for="type" value="Administrator"></attvalue>
        </attvalues>
        <viz:size value="23.0"></viz:size>
        <viz:position x="92.44757" y="356.53128" z="0.0"></viz:position>
        <viz:color r="251" g="29" b="29"></viz:color>
      </node>
      <node id="168" label="Francois Grappotte">
        <attvalues>
          <attvalue for="type" value="Administrator"></attvalue>
        </attvalues>
        <viz:size value="23.0"></viz:size>
        <viz:position x="-201.27419" y="237.74414" z="0.0"></viz:position>
        <viz:color r="251" g="29" b="29"></viz:color>
      </node>
      <node id="209" label="Henri Proglio">
        <attvalues>
          <attvalue for="type" value="Administrator"></attvalue>
        </attvalues>
        <viz:size value="23.0"></viz:size>
        <viz:position x="162.28828" y="-4.032198" z="0.0"></viz:position>
        <viz:color r="251" g="29" b="29"></viz:color>
      </node>
      <node id="164" label="Franck Riboud">
        <attvalues>
          <attvalue for="type" value="Administrator"></attvalue>
        </attvalues>
        <viz:size value="23.0"></viz:size>
        <viz:position x="337.74527" y="66.28797" z="0.0"></viz:position>
        <viz:color r="251" g="29" b="29"></viz:color>
      </node>
      <node id="5" label="Air Liquide">
        <attvalues>
          <attvalue for="type" value="Company"></attvalue>
        </attvalues>
        <viz:size value="5.0"></viz:size>
        <viz:position x="64.861" y="231.54852" z="0.0"></viz:position>
        <viz:color r="29" g="251" b="251"></viz:color>
      </node>
      <node id="160" label="France Telecom">
        <attvalues>
          <attvalue for="type" value="Company"></attvalue>
        </attvalues>
        <viz:size value="5.0"></viz:size>
        <viz:position x="194.9799" y="190.607" z="0.0"></viz:position>
        <viz:color r="29" g="251" b="251"></viz:color>
      </node>
      <node id="314" label="Marc Ladreit de Lacharriere">
        <attvalues>
          <attvalue for="type" value="Administrator"></attvalue>
        </attvalues>
        <viz:size value="23.0"></viz:size>
        <viz:position x="267.33597" y="66.03932" z="0.0"></viz:position>
        <viz:color r="251" g="29" b="29"></viz:color>
      </node>
      <node id="311" label="LVMH">
        <attvalues>
          <attvalue for="type" value="Company"></attvalue>
        </attvalues>
        <viz:size value="5.0"></viz:size>
        <viz:position x="196.3283" y="-215.69952" z="0.0"></viz:position>
        <viz:color r="29" g="251" b="251"></viz:color>
      </node>
      <node id="415" label="Philippe Lagayette">
        <attvalues>
          <attvalue for="type" value="Administrator"></attvalue>
        </attvalues>
        <viz:size value="23.0"></viz:size>
        <viz:position x="36.79658" y="-31.542297" z="0.0"></viz:position>
        <viz:color r="251" g="29" b="29"></viz:color>
      </node>
      <node id="175" label="Francois-Henri Pinault">
        <attvalues>
          <attvalue for="type" value="Administrator"></attvalue>
        </attvalues>
        <viz:size value="23.0"></viz:size>
        <viz:position x="-214.31119" y="-136.19145" z="0.0"></viz:position>
        <viz:color r="251" g="29" b="29"></viz:color>
      </node>
      <node id="515" label="Yves-Thibault de Silguy">
        <attvalues>
          <attvalue for="type" value="Administrator"></attvalue>
        </attvalues>
        <viz:size value="32.0"></viz:size>
        <viz:position x="108.52454" y="-211.76106" z="0.0"></viz:position>
        <viz:color r="251" g="29" b="29"></viz:color>
      </node>
      <node id="323" label="Marie-Josee Kravis">
        <attvalues>
          <attvalue for="type" value="Administrator"></attvalue>
        </attvalues>
        <viz:size value="23.0"></viz:size>
        <viz:position x="111.68403" y="-288.14044" z="0.0"></viz:position>
        <viz:color r="251" g="29" b="29"></viz:color>
      </node>
      <node id="187" label="Georges Ralli">
        <attvalues>
          <attvalue for="type" value="Administrator"></attvalue>
        </attvalues>
        <viz:size value="23.0"></viz:size>
        <viz:position x="164.30894" y="-252.05202" z="0.0"></viz:position>
        <viz:color r="251" g="29" b="29"></viz:color>
      </node>
      <node id="189" label="Gerard de la Martiniere">
        <attvalues>
          <attvalue for="type" value="Administrator"></attvalue>
        </attvalues>
        <viz:size value="23.0"></viz:size>
        <viz:position x="112.51796" y="296.07913" z="0.0"></viz:position>
        <viz:color r="251" g="29" b="29"></viz:color>
      </node>
      <node id="180" label="Frederic Lemoine">
        <attvalues>
          <attvalue for="type" value="Administrator"></attvalue>
        </attvalues>
        <viz:size value="23.0"></viz:size>
        <viz:position x="-285.76273" y="109.33701" z="0.0"></viz:position>
        <viz:color r="251" g="29" b="29"></viz:color>
      </node>
      <node id="428" label="Pierre-Andre de Chalendar">
        <attvalues>
          <attvalue for="type" value="Administrator"></attvalue>
        </attvalues>
        <viz:size value="23.0"></viz:size>
        <viz:position x="-88.04512" y="-49.631306" z="0.0"></viz:position>
        <viz:color r="251" g="29" b="29"></viz:color>
      </node>
      <node id="183" label="GDF Suez">
        <attvalues>
          <attvalue for="type" value="Company"></attvalue>
        </attvalues>
        <viz:size value="5.0"></viz:size>
        <viz:position x="-120.11599" y="80.185905" z="0.0"></viz:position>
        <viz:color r="29" g="251" b="251"></viz:color>
      </node>
      <node id="185" label="Georges Chodron de Courcel">
        <attvalues>
          <attvalue for="type" value="Administrator"></attvalue>
        </attvalues>
        <viz:size value="32.0"></viz:size>
        <viz:position x="-228.05298" y="-207.58" z="0.0"></viz:position>
        <viz:color r="251" g="29" b="29"></viz:color>
      </node>
      <node id="115" label="Daniel Bouton">
        <attvalues>
          <attvalue for="type" value="Administrator"></attvalue>
        </attvalues>
        <viz:size value="23.0"></viz:size>
        <viz:position x="19.301392" y="28.35123" z="0.0"></viz:position>
        <viz:color r="251" g="29" b="29"></viz:color>
      </node>
      <node id="111" label="Colette Lewiner">
        <attvalues>
          <attvalue for="type" value="Administrator"></attvalue>
        </attvalues>
        <viz:size value="23.0"></viz:size>
        <viz:position x="-233.9157" y="-71.299706" z="0.0"></viz:position>
        <viz:color r="251" g="29" b="29"></viz:color>
      </node>
      <node id="435" label="Renault">
        <attvalues>
          <attvalue for="type" value="Company"></attvalue>
        </attvalues>
        <viz:size value="5.0"></viz:size>
        <viz:position x="247.2529" y="-9.841481" z="0.0"></viz:position>
        <viz:color r="29" g="251" b="251"></viz:color>
      </node>
      <node id="431" label="Publicis Groupe">
        <attvalues>
          <attvalue for="type" value="Company"></attvalue>
        </attvalues>
        <viz:size value="5.0"></viz:size>
        <viz:position x="60.572105" y="-302.99176" z="0.0"></viz:position>
        <viz:color r="29" g="251" b="251"></viz:color>
      </node>
      <node id="430" label="PPR">
        <attvalues>
          <attvalue for="type" value="Company"></attvalue>
        </attvalues>
        <viz:size value="5.0"></viz:size>
        <viz:position x="-101.67671" y="-92.246" z="0.0"></viz:position>
        <viz:color r="29" g="251" b="251"></viz:color>
      </node>
      <node id="126" label="Denis Ranque">
        <attvalues>
          <attvalue for="type" value="Administrator"></attvalue>
        </attvalues>
        <viz:size value="23.0"></viz:size>
        <viz:position x="-236.11497" y="180.5796" z="0.0"></viz:position>
        <viz:color r="251" g="29" b="29"></viz:color>
      </node>
      <node id="121" label="David Azema">
        <attvalues>
          <attvalue for="type" value="Administrator"></attvalue>
        </attvalues>
        <viz:size value="23.0"></viz:size>
        <viz:position x="215.99933" y="31.351635" z="0.0"></viz:position>
        <viz:color r="251" g="29" b="29"></viz:color>
      </node>
      <node id="305" label="Louis Schweitzer">
        <attvalues>
          <attvalue for="type" value="Administrator"></attvalue>
        </attvalues>
        <viz:size value="32.0"></viz:size>
        <viz:position x="93.18317" y="16.879007" z="0.0"></viz:position>
        <viz:color r="251" g="29" b="29"></viz:color>
      </node>
      <node id="445" label="Saint-Gobain">
        <attvalues>
          <attvalue for="type" value="Company"></attvalue>
        </attvalues>
        <viz:size value="5.0"></viz:size>
        <viz:position x="-260.93973" y="9.498174" z="0.0"></viz:position>
        <viz:color r="29" g="251" b="251"></viz:color>
      </node>
      <node id="447" label="SANOFI">
        <attvalues>
          <attvalue for="type" value="Company"></attvalue>
        </attvalues>
        <viz:size value="5.0"></viz:size>
        <viz:position x="96.4169" y="164.83527" z="0.0"></viz:position>
        <viz:color r="29" g="251" b="251"></viz:color>
      </node>
      <node id="441" label="Robert Castaigne">
        <attvalues>
          <attvalue for="type" value="Administrator"></attvalue>
        </attvalues>
        <viz:size value="32.0"></viz:size>
        <viz:position x="156.45958" y="-79.26484" z="0.0"></viz:position>
        <viz:color r="251" g="29" b="29"></viz:color>
      </node>
      <node id="120" label="Danone">
        <attvalues>
          <attvalue for="type" value="Company"></attvalue>
        </attvalues>
        <viz:size value="5.0"></viz:size>
        <viz:position x="342.04126" y="126.657425" z="0.0"></viz:position>
        <viz:color r="29" g="251" b="251"></viz:color>
      </node>
      <node id="448" label="Schneider Electric">
        <attvalues>
          <attvalue for="type" value="Company"></attvalue>
        </attvalues>
        <viz:size value="5.0"></viz:size>
        <viz:position x="165.10513" y="316.90677" z="0.0"></viz:position>
        <viz:color r="29" g="251" b="251"></viz:color>
      </node>
      <node id="452" label="Serge Weinberg">
        <attvalues>
          <attvalue for="type" value="Administrator"></attvalue>
        </attvalues>
        <viz:size value="23.0"></viz:size>
        <viz:position x="165.50671" y="264.23294" z="0.0"></viz:position>
        <viz:color r="251" g="29" b="29"></viz:color>
      </node>
      <node id="457" label="Solvay">
        <attvalues>
          <attvalue for="type" value="Company"></attvalue>
        </attvalues>
        <viz:size value="5.0"></viz:size>
        <viz:position x="-32.345264" y="-230.82434" z="0.0"></viz:position>
        <viz:color r="29" g="251" b="251"></viz:color>
      </node>
      <node id="456" label="Societe Generale">
        <attvalues>
          <attvalue for="type" value="Company"></attvalue>
        </attvalues>
        <viz:size value="5.0"></viz:size>
        <viz:position x="54.881954" y="-194.9107" z="0.0"></viz:position>
        <viz:color r="29" g="251" b="251"></viz:color>
      </node>
      <node id="143" label="EDF">
        <attvalues>
          <attvalue for="type" value="Company"></attvalue>
        </attvalues>
        <viz:size value="5.0"></viz:size>
        <viz:position x="174.37724" y="60.061264" z="0.0"></viz:position>
        <viz:color r="29" g="251" b="251"></viz:color>
      </node>
      <node id="464" label="Suet Fern Lee">
        <attvalues>
          <attvalue for="type" value="Administrator"></attvalue>
        </attvalues>
        <viz:size value="23.0"></viz:size>
        <viz:position x="-26.675945" y="-8.147967" z="0.0"></viz:position>
        <viz:color r="251" g="29" b="29"></viz:color>
      </node>
      <node id="469" label="Technip">
        <attvalues>
          <attvalue for="type" value="Company"></attvalue>
        </attvalues>
        <viz:size value="5.0"></viz:size>
        <viz:position x="-244.31143" y="-351.36636" z="0.0"></viz:position>
        <viz:color r="29" g="251" b="251"></viz:color>
      </node>
      <node id="142" label="EADS">
        <attvalues>
          <attvalue for="type" value="Company"></attvalue>
        </attvalues>
        <viz:size value="5.0"></viz:size>
        <viz:position x="-147.82372" y="168.63837" z="0.0"></viz:position>
        <viz:color r="29" g="251" b="251"></viz:color>
      </node>
      <node id="191" label="Gerard Lamarche">
        <attvalues>
          <attvalue for="type" value="Administrator"></attvalue>
        </attvalues>
        <viz:size value="41.0"></viz:size>
        <viz:position x="-187.99017" y="118.40068" z="0.0"></viz:position>
        <viz:color r="251" g="29" b="29"></viz:color>
      </node>
      <node id="190" label="Gerard Hauser">
        <attvalues>
          <attvalue for="type" value="Administrator"></attvalue>
        </attvalues>
        <viz:size value="23.0"></viz:size>
        <viz:position x="-211.69844" y="-330.6448" z="0.0"></viz:position>
        <viz:color r="251" g="29" b="29"></viz:color>
      </node>
      <node id="192" label="Gerard Mestrallet">
        <attvalues>
          <attvalue for="type" value="Administrator"></attvalue>
        </attvalues>
        <viz:size value="23.0"></viz:size>
        <viz:position x="-241.1652" y="58.8329" z="0.0"></viz:position>
        <viz:color r="251" g="29" b="29"></viz:color>
      </node>
      <node id="199" label="Gilles Schnepp">
        <attvalues>
          <attvalue for="type" value="Administrator"></attvalue>
        </attvalues>
        <viz:size value="23.0"></viz:size>
        <viz:position x="-335.87866" y="145.75827" z="0.0"></viz:position>
        <viz:color r="251" g="29" b="29"></viz:color>
      </node>
      <node id="502" label="Xavier Fontanet">
        <attvalues>
          <attvalue for="type" value="Administrator"></attvalue>
        </attvalues>
        <viz:size value="32.0"></viz:size>
        <viz:position x="249.3244" y="260.46634" z="0.0"></viz:position>
        <viz:color r="251" g="29" b="29"></viz:color>
      </node>
      <node id="41" label="Arcelor-Mittal">
        <attvalues>
          <attvalue for="type" value="Company"></attvalue>
        </attvalues>
        <viz:size value="5.0"></viz:size>
        <viz:position x="-12.242839" y="145.54166" z="0.0"></viz:position>
        <viz:color r="29" g="251" b="251"></viz:color>
      </node>
      <node id="22" label="Amaury de Seze">
        <attvalues>
          <attvalue for="type" value="Administrator"></attvalue>
        </attvalues>
        <viz:size value="23.0"></viz:size>
        <viz:position x="103.54483" y="-350.84128" z="0.0"></viz:position>
        <viz:color r="251" g="29" b="29"></viz:color>
      </node>
      <node id="27" label="Anne Lauvergeon">
        <attvalues>
          <attvalue for="type" value="Administrator"></attvalue>
        </attvalues>
        <viz:size value="23.0"></viz:size>
        <viz:position x="-111.81403" y="197.72331" z="0.0"></viz:position>
        <viz:color r="251" g="29" b="29"></viz:color>
      </node>
      <node id="29" label="Anne-Marie Idrac">
        <attvalues>
          <attvalue for="type" value="Administrator"></attvalue>
        </attvalues>
        <viz:size value="32.0"></viz:size>
        <viz:position x="-346.03912" y="-37.031906" z="0.0"></viz:position>
        <viz:color r="251" g="29" b="29"></viz:color>
      </node>
      <node id="21" label="Alstom">
        <attvalues>
          <attvalue for="type" value="Company"></attvalue>
        </attvalues>
        <viz:size value="5.0"></viz:size>
        <viz:position x="-251.87407" y="-277.47873" z="0.0"></viz:position>
        <viz:color r="29" g="251" b="251"></viz:color>
      </node>
      <node id="10" label="Albert Frere">
        <attvalues>
          <attvalue for="type" value="Administrator"></attvalue>
        </attvalues>
        <viz:size value="23.0"></viz:size>
        <viz:position x="89.682365" y="-55.55363" z="0.0"></viz:position>
        <viz:color r="251" g="29" b="29"></viz:color>
      </node>
      <node id="87" label="Carrefour">
        <attvalues>
          <attvalue for="type" value="Company"></attvalue>
        </attvalues>
        <viz:size value="5.0"></viz:size>
        <viz:position x="159.83281" y="-309.4248" z="0.0"></viz:position>
        <viz:color r="29" g="251" b="251"></viz:color>
      </node>
      <node id="71" label="BNP Paribas">
        <attvalues>
          <attvalue for="type" value="Company"></attvalue>
        </attvalues>
        <viz:size value="5.0"></viz:size>
        <viz:position x="-74.85975" y="-105.901535" z="0.0"></viz:position>
        <viz:color r="29" g="251" b="251"></viz:color>
      </node>
      <node id="72" label="Bouygues">
        <attvalues>
          <attvalue for="type" value="Company"></attvalue>
        </attvalues>
        <viz:size value="5.0"></viz:size>
        <viz:position x="-284.63562" y="-145.18846" z="0.0"></viz:position>
        <viz:color r="29" g="251" b="251"></viz:color>
      </node>
      <node id="74" label="Bruno Lafont">
        <attvalues>
          <attvalue for="type" value="Administrator"></attvalue>
        </attvalues>
        <viz:size value="32.0"></viz:size>
        <viz:position x="25.553192" y="99.160706" z="0.0"></viz:position>
        <viz:color r="251" g="29" b="29"></viz:color>
      </node>
      <node id="56" label="Bernard Arnault">
        <attvalues>
          <attvalue for="type" value="Administrator"></attvalue>
        </attvalues>
        <viz:size value="23.0"></viz:size>
        <viz:position x="233.37198" y="-259.25812" z="0.0"></viz:position>
        <viz:color r="251" g="29" b="29"></viz:color>
      </node>
      <node id="62" label="Bernard Hours">
        <attvalues>
          <attvalue for="type" value="Administrator"></attvalue>
        </attvalues>
        <viz:size value="23.0"></viz:size>
        <viz:position x="347.46844" y="178.88829" z="0.0"></viz:position>
        <viz:color r="251" g="29" b="29"></viz:color>
      </node>
      <node id="48" label="Baudouin Prot">
        <attvalues>
          <attvalue for="type" value="Administrator"></attvalue>
        </attvalues>
        <viz:size value="41.0"></viz:size>
        <viz:position x="-13.274245" y="-92.55377" z="0.0"></viz:position>
        <viz:color r="251" g="29" b="29"></viz:color>
      </node>
      <node id="44" label="AXA">
        <attvalues>
          <attvalue for="type" value="Company"></attvalue>
        </attvalues>
        <viz:size value="5.0"></viz:size>
        <viz:position x="-107.88793" y="-123.85128" z="0.0"></viz:position>
        <viz:color r="29" g="251" b="251"></viz:color>
      </node>
      <node id="54" label="Benoit Potier">
        <attvalues>
          <attvalue for="type" value="Administrator"></attvalue>
        </attvalues>
        <viz:size value="23.0"></viz:size>
        <viz:position x="-54.521744" y="249.39726" z="0.0"></viz:position>
        <viz:color r="251" g="29" b="29"></viz:color>
      </node>
      <node id="486" label="Vallourec">
        <attvalues>
          <attvalue for="type" value="Company"></attvalue>
        </attvalues>
        <viz:size value="5.0"></viz:size>
        <viz:position x="-351.95502" y="30.818913" z="0.0"></viz:position>
        <viz:color r="29" g="251" b="251"></viz:color>
      </node>
      <node id="488" label="Veolia Environnement">
        <attvalues>
          <attvalue for="type" value="Company"></attvalue>
        </attvalues>
        <viz:size value="5.0"></viz:size>
        <viz:position x="66.119354" y="-91.2992" z="0.0"></viz:position>
        <viz:color r="29" g="251" b="251"></viz:color>
      </node>
      <node id="288" label="Lafarge SA">
        <attvalues>
          <attvalue for="type" value="Company"></attvalue>
        </attvalues>
        <viz:size value="5.0"></viz:size>
        <viz:position x="-79.01834" y="-5.7085257" z="0.0"></viz:position>
        <viz:color r="29" g="251" b="251"></viz:color>
      </node>
      <node id="289" label="Lakshmi N. Mittal">
        <attvalues>
          <attvalue for="type" value="Administrator"></attvalue>
        </attvalues>
        <viz:size value="23.0"></viz:size>
        <viz:position x="-51.22333" y="175.91742" z="0.0"></viz:position>
        <viz:color r="251" g="29" b="29"></viz:color>
      </node>
      <node id="287" label="L'Oreal">
        <attvalues>
          <attvalue for="type" value="Company"></attvalue>
        </attvalues>
        <viz:size value="5.0"></viz:size>
        <viz:position x="200.35559" y="151.85211" z="0.0"></viz:position>
        <viz:color r="29" g="251" b="251"></viz:color>
      </node>
      <node id="482" label="TOTAL">
        <attvalues>
          <attvalue for="type" value="Company"></attvalue>
        </attvalues>
        <viz:size value="5.0"></viz:size>
        <viz:position x="-63.637394" y="116.17194" z="0.0"></viz:position>
        <viz:color r="29" g="251" b="251"></viz:color>
      </node>
      <node id="475" label="Thierry Desmarest">
        <attvalues>
          <attvalue for="type" value="Administrator"></attvalue>
        </attvalues>
        <viz:size value="41.0"></viz:size>
        <viz:position x="122.2596" y="108.434555" z="0.0"></viz:position>
        <viz:color r="251" g="29" b="29"></viz:color>
      </node>
      <node id="109" label="Claudie Haignere">
        <attvalues>
          <attvalue for="type" value="Administrator"></attvalue>
        </attvalues>
        <viz:size value="23.0"></viz:size>
        <viz:position x="154.5038" y="187.39334" z="0.0"></viz:position>
        <viz:color r="251" g="29" b="29"></viz:color>
      </node>
      <node id="104" label="Christophe de Margerie">
        <attvalues>
          <attvalue for="type" value="Administrator"></attvalue>
        </attvalues>
        <viz:size value="23.0"></viz:size>
        <viz:position x="-12.454088" y="297.5253" z="0.0"></viz:position>
        <viz:color r="251" g="29" b="29"></viz:color>
      </node>
      <node id="94" label="Charles-Henri Filippi">
        <attvalues>
          <attvalue for="type" value="Administrator"></attvalue>
        </attvalues>
        <viz:size value="23.0"></viz:size>
        <viz:position x="237.24513" y="186.83875" z="0.0"></viz:position>
        <viz:color r="251" g="29" b="29"></viz:color>
      </node>
      <node id="392" label="Patrick Kron">
        <attvalues>
          <attvalue for="type" value="Administrator"></attvalue>
        </attvalues>
        <viz:size value="23.0"></viz:size>
        <viz:position x="-300.7291" y="-252.13354" z="0.0"></viz:position>
        <viz:color r="251" g="29" b="29"></viz:color>
      </node>
      <node id="92" label="Charles de Croisset">
        <attvalues>
          <attvalue for="type" value="Administrator"></attvalue>
        </attvalues>
        <viz:size value="23.0"></viz:size>
        <viz:position x="262.63025" y="-143.99501" z="0.0"></viz:position>
        <viz:color r="251" g="29" b="29"></viz:color>
      </node>
      <node id="294" label="Laurence Parisot">
        <attvalues>
          <attvalue for="type" value="Administrator"></attvalue>
        </attvalues>
        <viz:size value="23.0"></viz:size>
        <viz:position x="-107.762794" y="136.35646" z="0.0"></viz:position>
        <viz:color r="251" g="29" b="29"></viz:color>
      </node>
      <node id="496" label="Vivendi">
        <attvalues>
          <attvalue for="type" value="Company"></attvalue>
        </attvalues>
        <viz:size value="5.0"></viz:size>
        <viz:position x="38.301826" y="329.2309" z="0.0"></viz:position>
        <viz:color r="29" g="251" b="251"></viz:color>
      </node>
      <node id="493" label="Vinci">
        <attvalues>
          <attvalue for="type" value="Company"></attvalue>
        </attvalues>
        <viz:size value="5.0"></viz:size>
        <viz:position x="189.11478" y="-137.3217" z="0.0"></viz:position>
        <viz:color r="29" g="251" b="251"></viz:color>
      </node>
      <node id="297" label="Legrand">
        <attvalues>
          <attvalue for="type" value="Company"></attvalue>
        </attvalues>
        <viz:size value="5.0"></viz:size>
        <viz:position x="-288.99646" y="162.07013" z="0.0"></viz:position>
        <viz:color r="29" g="251" b="251"></viz:color>
      </node>
      <node id="397" label="Paul Desmarais Jr">
        <attvalues>
          <attvalue for="type" value="Administrator"></attvalue>
        </attvalues>
        <viz:size value="32.0"></viz:size>
        <viz:position x="-63.718933" y="57.29653" z="0.0"></viz:position>
        <viz:color r="251" g="29" b="29"></viz:color>
      </node>
      <node id="382" label="Pascal Colombani">
        <attvalues>
          <attvalue for="type" value="Administrator"></attvalue>
        </attvalues>
        <viz:size value="23.0"></viz:size>
        <viz:position x="-279.51862" y="-333.65237" z="0.0"></viz:position>
        <viz:color r="251" g="29" b="29"></viz:color>
      </node>
      <node id="387" label="Patricia Barbizet">
        <attvalues>
          <attvalue for="type" value="Administrator"></attvalue>
        </attvalues>
        <viz:size value="32.0"></viz:size>
        <viz:position x="-161.24396" y="-93.78161" z="0.0"></viz:position>
        <viz:color r="251" g="29" b="29"></viz:color>
      </node>
      <node id="385" label="Pascale Sourisse">
        <attvalues>
          <attvalue for="type" value="Administrator"></attvalue>
        </attvalues>
        <viz:size value="23.0"></viz:size>
        <viz:position x="241.76358" y="-82.32728" z="0.0"></viz:position>
        <viz:color r="251" g="29" b="29"></viz:color>
      </node>
      <node id="243" label="Jean-Laurent Bonnafe">
        <attvalues>
          <attvalue for="type" value="Administrator"></attvalue>
        </attvalues>
        <viz:size value="23.0"></viz:size>
        <viz:position x="46.066185" y="-248.0867" z="0.0"></viz:position>
        <viz:color r="251" g="29" b="29"></viz:color>
      </node>
      <node id="373" label="Olivier Bazil">
        <attvalues>
          <attvalue for="type" value="Administrator"></attvalue>
        </attvalues>
        <viz:size value="23.0"></viz:size>
        <viz:position x="-359.4276" y="85.40109" z="0.0"></viz:position>
        <viz:color r="251" g="29" b="29"></viz:color>
      </node>
      <node id="239" label="Jean-Francois Cirelli">
        <attvalues>
          <attvalue for="type" value="Administrator"></attvalue>
        </attvalues>
        <viz:size value="23.0"></viz:size>
        <viz:position x="-301.83487" y="45.391132" z="0.0"></viz:position>
        <viz:color r="251" g="29" b="29"></viz:color>
      </node>
      <node id="375" label="Olivier Bouygues">
        <attvalues>
          <attvalue for="type" value="Administrator"></attvalue>
        </attvalues>
        <viz:size value="23.0"></viz:size>
        <viz:position x="-315.69424" y="-194.11172" z="0.0"></viz:position>
        <viz:color r="251" g="29" b="29"></viz:color>
      </node>
      <node id="374" label="Olivier Bourges">
        <attvalues>
          <attvalue for="type" value="Administrator"></attvalue>
        </attvalues>
        <viz:size value="23.0"></viz:size>
        <viz:position x="43.580215" y="174.15369" z="0.0"></viz:position>
        <viz:color r="251" g="29" b="29"></viz:color>
      </node>
      <node id="235" label="Jean-Bernard Levy">
        <attvalues>
          <attvalue for="type" value="Administrator"></attvalue>
        </attvalues>
        <viz:size value="23.0"></viz:size>
        <viz:position x="148.60513" y="-155.99713" z="0.0"></viz:position>
        <viz:color r="251" g="29" b="29"></viz:color>
      </node>
      <node id="261" label="Jean-Pierre Clamadieu">
        <attvalues>
          <attvalue for="type" value="Administrator"></attvalue>
        </attvalues>
        <viz:size value="23.0"></viz:size>
        <viz:position x="-69.96613" y="-166.81464" z="0.0"></viz:position>
        <viz:color r="251" g="29" b="29"></viz:color>
      </node>
      <node id="360" label="Nathalie Rachou">
        <attvalues>
          <attvalue for="type" value="Administrator"></attvalue>
        </attvalues>
        <viz:size value="23.0"></viz:size>
        <viz:position x="73.00453" y="-144.97513" z="0.0"></viz:position>
        <viz:color r="251" g="29" b="29"></viz:color>
      </node>
      <node id="363" label="Nicolas Bazire">
        <attvalues>
          <attvalue for="type" value="Administrator"></attvalue>
        </attvalues>
        <viz:size value="23.0"></viz:size>
        <viz:position x="208.49556" y="-315.0595" z="0.0"></viz:position>
        <viz:color r="251" g="29" b="29"></viz:color>
      </node>
      <node id="266" label="Jean-Rene Fourtou">
        <attvalues>
          <attvalue for="type" value="Administrator"></attvalue>
        </attvalues>
        <viz:size value="23.0"></viz:size>
        <viz:position x="49.5467" y="280.3777" z="0.0"></viz:position>
        <viz:color r="251" g="29" b="29"></viz:color>
      </node>
      <node id="353" label="Michelin">
        <attvalues>
          <attvalue for="type" value="Company"></attvalue>
        </attvalues>
        <viz:size value="5.0"></viz:size>
        <viz:position x="-131.46996" y="234.56654" z="0.0"></viz:position>
        <viz:color r="29" g="251" b="251"></viz:color>
      </node>
      <node id="354" label="Mireille Faugere">
        <attvalues>
          <attvalue for="type" value="Administrator"></attvalue>
        </attvalues>
        <viz:size value="23.0"></viz:size>
        <viz:position x="239.59373" y="121.446655" z="0.0"></viz:position>
        <viz:color r="251" g="29" b="29"></viz:color>
      </node>
      <node id="254" label="Jean-Michel Severino">
        <attvalues>
          <attvalue for="type" value="Administrator"></attvalue>
        </attvalues>
        <viz:size value="23.0"></viz:size>
        <viz:position x="294.43338" y="147.59093" z="0.0"></viz:position>
        <viz:color r="251" g="29" b="29"></viz:color>
      </node>
      <node id="253" label="Jean-Martin Folz">
        <attvalues>
          <attvalue for="type" value="Administrator"></attvalue>
        </attvalues>
        <viz:size value="50.0"></viz:size>
        <viz:position x="-121.0766" y="-239.2107" z="0.0"></viz:position>
        <viz:color r="251" g="29" b="29"></viz:color>
      </node>
      <node id="255" label="Jean-Paul Agon">
        <attvalues>
          <attvalue for="type" value="Administrator"></attvalue>
        </attvalues>
        <viz:size value="23.0"></viz:size>
        <viz:position x="111.36775" y="225.7341" z="0.0"></viz:position>
        <viz:color r="251" g="29" b="29"></viz:color>
      </node>
    </nodes>
    <edges>
      <edge id="154--&gt;502" source="154" target="502">
        <viz:color r="128" g="128" b="128"></viz:color>
        <attvalues></attvalues>
      </edge>
      <edge id="154--&gt;62" source="154" target="62">
        <viz:color r="128" g="128" b="128"></viz:color>
        <attvalues></attvalues>
      </edge>
      <edge id="154--&gt;354" source="154" target="354">
        <viz:color r="128" g="128" b="128"></viz:color>
        <attvalues></attvalues>
      </edge>
      <edge id="5--&gt;189" source="5" target="189">
        <viz:color r="128" g="128" b="128"></viz:color>
        <attvalues></attvalues>
      </edge>
      <edge id="5--&gt;54" source="5" target="54">
        <viz:color r="128" g="128" b="128"></viz:color>
        <attvalues></attvalues>
      </edge>
      <edge id="5--&gt;475" source="5" target="475">
        <viz:color r="128" g="128" b="128"></viz:color>
        <attvalues></attvalues>
      </edge>
      <edge id="5--&gt;255" source="5" target="255">
        <viz:color r="128" g="128" b="128"></viz:color>
        <attvalues></attvalues>
      </edge>
      <edge id="160--&gt;109" source="160" target="109">
        <viz:color r="128" g="128" b="128"></viz:color>
        <attvalues></attvalues>
      </edge>
      <edge id="160--&gt;94" source="160" target="94">
        <viz:color r="128" g="128" b="128"></viz:color>
        <attvalues></attvalues>
      </edge>
      <edge id="160--&gt;374" source="160" target="374">
        <viz:color r="128" g="128" b="128"></viz:color>
        <attvalues></attvalues>
      </edge>
      <edge id="160--&gt;254" source="160" target="254">
        <viz:color r="128" g="128" b="128"></viz:color>
        <attvalues></attvalues>
      </edge>
      <edge id="311--&gt;515" source="311" target="515">
        <viz:color r="128" g="128" b="128"></viz:color>
        <attvalues></attvalues>
      </edge>
      <edge id="311--&gt;323" source="311" target="323">
        <viz:color r="128" g="128" b="128"></viz:color>
        <attvalues></attvalues>
      </edge>
      <edge id="311--&gt;10" source="311" target="10">
        <viz:color r="128" g="128" b="128"></viz:color>
        <attvalues></attvalues>
      </edge>
      <edge id="311--&gt;56" source="311" target="56">
        <viz:color r="128" g="128" b="128"></viz:color>
        <attvalues></attvalues>
      </edge>
      <edge id="311--&gt;92" source="311" target="92">
        <viz:color r="128" g="128" b="128"></viz:color>
        <attvalues></attvalues>
      </edge>
      <edge id="311--&gt;363" source="311" target="363">
        <viz:color r="128" g="128" b="128"></viz:color>
        <attvalues></attvalues>
      </edge>
      <edge id="183--&gt;191" source="183" target="191">
        <viz:color r="128" g="128" b="128"></viz:color>
        <attvalues></attvalues>
      </edge>
      <edge id="183--&gt;192" source="183" target="192">
        <viz:color r="128" g="128" b="128"></viz:color>
        <attvalues></attvalues>
      </edge>
      <edge id="183--&gt;10" source="183" target="10">
        <viz:color r="128" g="128" b="128"></viz:color>
        <attvalues></attvalues>
      </edge>
      <edge id="183--&gt;397" source="183" target="397">
        <viz:color r="128" g="128" b="128"></viz:color>
        <attvalues></attvalues>
      </edge>
      <edge id="183--&gt;239" source="183" target="239">
        <viz:color r="128" g="128" b="128"></viz:color>
        <attvalues></attvalues>
      </edge>
      <edge id="183--&gt;374" source="183" target="374">
        <viz:color r="128" g="128" b="128"></viz:color>
        <attvalues></attvalues>
      </edge>
      <edge id="435--&gt;164" source="435" target="164">
        <viz:color r="128" g="128" b="128"></viz:color>
        <attvalues></attvalues>
      </edge>
      <edge id="435--&gt;314" source="435" target="314">
        <viz:color r="128" g="128" b="128"></viz:color>
        <attvalues></attvalues>
      </edge>
      <edge id="435--&gt;415" source="435" target="415">
        <viz:color r="128" g="128" b="128"></viz:color>
        <attvalues></attvalues>
      </edge>
      <edge id="435--&gt;121" source="435" target="121">
        <viz:color r="128" g="128" b="128"></viz:color>
        <attvalues></attvalues>
      </edge>
      <edge id="435--&gt;475" source="435" target="475">
        <viz:color r="128" g="128" b="128"></viz:color>
        <attvalues></attvalues>
      </edge>
      <edge id="435--&gt;92" source="435" target="92">
        <viz:color r="128" g="128" b="128"></viz:color>
        <attvalues></attvalues>
      </edge>
      <edge id="435--&gt;385" source="435" target="385">
        <viz:color r="128" g="128" b="128"></viz:color>
        <attvalues></attvalues>
      </edge>
      <edge id="431--&gt;204" source="431" target="204">
        <viz:color r="128" g="128" b="128"></viz:color>
        <attvalues></attvalues>
      </edge>
      <edge id="431--&gt;341" source="431" target="341">
        <viz:color r="128" g="128" b="128"></viz:color>
        <attvalues></attvalues>
      </edge>
      <edge id="431--&gt;323" source="431" target="323">
        <viz:color r="128" g="128" b="128"></viz:color>
        <attvalues></attvalues>
      </edge>
      <edge id="431--&gt;22" source="431" target="22">
        <viz:color r="128" g="128" b="128"></viz:color>
        <attvalues></attvalues>
      </edge>
      <edge id="430--&gt;415" source="430" target="415">
        <viz:color r="128" g="128" b="128"></viz:color>
        <attvalues></attvalues>
      </edge>
      <edge id="430--&gt;175" source="430" target="175">
        <viz:color r="128" g="128" b="128"></viz:color>
        <attvalues></attvalues>
      </edge>
      <edge id="430--&gt;48" source="430" target="48">
        <viz:color r="128" g="128" b="128"></viz:color>
        <attvalues></attvalues>
      </edge>
      <edge id="430--&gt;387" source="430" target="387">
        <viz:color r="128" g="128" b="128"></viz:color>
        <attvalues></attvalues>
      </edge>
      <edge id="445--&gt;346" source="445" target="346">
        <viz:color r="128" g="128" b="128"></viz:color>
        <attvalues></attvalues>
      </edge>
      <edge id="445--&gt;180" source="445" target="180">
        <viz:color r="128" g="128" b="128"></viz:color>
        <attvalues></attvalues>
      </edge>
      <edge id="445--&gt;428" source="445" target="428">
        <viz:color r="128" g="128" b="128"></viz:color>
        <attvalues></attvalues>
      </edge>
      <edge id="445--&gt;126" source="445" target="126">
        <viz:color r="128" g="128" b="128"></viz:color>
        <attvalues></attvalues>
      </edge>
      <edge id="445--&gt;192" source="445" target="192">
        <viz:color r="128" g="128" b="128"></viz:color>
        <attvalues></attvalues>
      </edge>
      <edge id="445--&gt;199" source="445" target="199">
        <viz:color r="128" g="128" b="128"></viz:color>
        <attvalues></attvalues>
      </edge>
      <edge id="445--&gt;29" source="445" target="29">
        <viz:color r="128" g="128" b="128"></viz:color>
        <attvalues></attvalues>
      </edge>
      <edge id="445--&gt;253" source="445" target="253">
        <viz:color r="128" g="128" b="128"></viz:color>
        <attvalues></attvalues>
      </edge>
      <edge id="447--&gt;441" source="447" target="441">
        <viz:color r="128" g="128" b="128"></viz:color>
        <attvalues></attvalues>
      </edge>
      <edge id="447--&gt;452" source="447" target="452">
        <viz:color r="128" g="128" b="128"></viz:color>
        <attvalues></attvalues>
      </edge>
      <edge id="447--&gt;464" source="447" target="464">
        <viz:color r="128" g="128" b="128"></viz:color>
        <attvalues></attvalues>
      </edge>
      <edge id="447--&gt;475" source="447" target="475">
        <viz:color r="128" g="128" b="128"></viz:color>
        <attvalues></attvalues>
      </edge>
      <edge id="447--&gt;109" source="447" target="109">
        <viz:color r="128" g="128" b="128"></viz:color>
        <attvalues></attvalues>
      </edge>
      <edge id="447--&gt;266" source="447" target="266">
        <viz:color r="128" g="128" b="128"></viz:color>
        <attvalues></attvalues>
      </edge>
      <edge id="120--&gt;164" source="120" target="164">
        <viz:color r="128" g="128" b="128"></viz:color>
        <attvalues></attvalues>
      </edge>
      <edge id="120--&gt;62" source="120" target="62">
        <viz:color r="128" g="128" b="128"></viz:color>
        <attvalues></attvalues>
      </edge>
      <edge id="120--&gt;254" source="120" target="254">
        <viz:color r="128" g="128" b="128"></viz:color>
        <attvalues></attvalues>
      </edge>
      <edge id="448--&gt;208" source="448" target="208">
        <viz:color r="128" g="128" b="128"></viz:color>
        <attvalues></attvalues>
      </edge>
      <edge id="448--&gt;189" source="448" target="189">
        <viz:color r="128" g="128" b="128"></viz:color>
        <attvalues></attvalues>
      </edge>
      <edge id="448--&gt;452" source="448" target="452">
        <viz:color r="128" g="128" b="128"></viz:color>
        <attvalues></attvalues>
      </edge>
      <edge id="448--&gt;502" source="448" target="502">
        <viz:color r="128" g="128" b="128"></viz:color>
        <attvalues></attvalues>
      </edge>
      <edge id="457--&gt;515" source="457" target="515">
        <viz:color r="128" g="128" b="128"></viz:color>
        <attvalues></attvalues>
      </edge>
      <edge id="457--&gt;261" source="457" target="261">
        <viz:color r="128" g="128" b="128"></viz:color>
        <attvalues></attvalues>
      </edge>
      <edge id="457--&gt;253" source="457" target="253">
        <viz:color r="128" g="128" b="128"></viz:color>
        <attvalues></attvalues>
      </edge>
      <edge id="456--&gt;341" source="456" target="341">
        <viz:color r="128" g="128" b="128"></viz:color>
        <attvalues></attvalues>
      </edge>
      <edge id="456--&gt;441" source="456" target="441">
        <viz:color r="128" g="128" b="128"></viz:color>
        <attvalues></attvalues>
      </edge>
      <edge id="456--&gt;235" source="456" target="235">
        <viz:color r="128" g="128" b="128"></viz:color>
        <attvalues></attvalues>
      </edge>
      <edge id="456--&gt;360" source="456" target="360">
        <viz:color r="128" g="128" b="128"></viz:color>
        <attvalues></attvalues>
      </edge>
      <edge id="456--&gt;253" source="456" target="253">
        <viz:color r="128" g="128" b="128"></viz:color>
        <attvalues></attvalues>
      </edge>
      <edge id="143--&gt;209" source="143" target="209">
        <viz:color r="128" g="128" b="128"></viz:color>
        <attvalues></attvalues>
      </edge>
      <edge id="143--&gt;121" source="143" target="121">
        <viz:color r="128" g="128" b="128"></viz:color>
        <attvalues></attvalues>
      </edge>
      <edge id="143--&gt;74" source="143" target="74">
        <viz:color r="128" g="128" b="128"></viz:color>
        <attvalues></attvalues>
      </edge>
      <edge id="143--&gt;354" source="143" target="354">
        <viz:color r="128" g="128" b="128"></viz:color>
        <attvalues></attvalues>
      </edge>
      <edge id="469--&gt;190" source="469" target="190">
        <viz:color r="128" g="128" b="128"></viz:color>
        <attvalues></attvalues>
      </edge>
      <edge id="469--&gt;382" source="469" target="382">
        <viz:color r="128" g="128" b="128"></viz:color>
        <attvalues></attvalues>
      </edge>
      <edge id="142--&gt;346" source="142" target="346">
        <viz:color r="128" g="128" b="128"></viz:color>
        <attvalues></attvalues>
      </edge>
      <edge id="142--&gt;126" source="142" target="126">
        <viz:color r="128" g="128" b="128"></viz:color>
        <attvalues></attvalues>
      </edge>
      <edge id="142--&gt;27" source="142" target="27">
        <viz:color r="128" g="128" b="128"></viz:color>
        <attvalues></attvalues>
      </edge>
      <edge id="142--&gt;289" source="142" target="289">
        <viz:color r="128" g="128" b="128"></viz:color>
        <attvalues></attvalues>
      </edge>
      <edge id="41--&gt;74" source="41" target="74">
        <viz:color r="128" g="128" b="128"></viz:color>
        <attvalues></attvalues>
      </edge>
      <edge id="41--&gt;289" source="41" target="289">
        <viz:color r="128" g="128" b="128"></viz:color>
        <attvalues></attvalues>
      </edge>
      <edge id="21--&gt;185" source="21" target="185">
        <viz:color r="128" g="128" b="128"></viz:color>
        <attvalues></attvalues>
      </edge>
      <edge id="21--&gt;190" source="21" target="190">
        <viz:color r="128" g="128" b="128"></viz:color>
        <attvalues></attvalues>
      </edge>
      <edge id="21--&gt;392" source="21" target="392">
        <viz:color r="128" g="128" b="128"></viz:color>
        <attvalues></attvalues>
      </edge>
      <edge id="21--&gt;382" source="21" target="382">
        <viz:color r="128" g="128" b="128"></viz:color>
        <attvalues></attvalues>
      </edge>
      <edge id="21--&gt;375" source="21" target="375">
        <viz:color r="128" g="128" b="128"></viz:color>
        <attvalues></attvalues>
      </edge>
      <edge id="21--&gt;253" source="21" target="253">
        <viz:color r="128" g="128" b="128"></viz:color>
        <attvalues></attvalues>
      </edge>
      <edge id="87--&gt;187" source="87" target="187">
        <viz:color r="128" g="128" b="128"></viz:color>
        <attvalues></attvalues>
      </edge>
      <edge id="87--&gt;22" source="87" target="22">
        <viz:color r="128" g="128" b="128"></viz:color>
        <attvalues></attvalues>
      </edge>
      <edge id="87--&gt;56" source="87" target="56">
        <viz:color r="128" g="128" b="128"></viz:color>
        <attvalues></attvalues>
      </edge>
      <edge id="87--&gt;243" source="87" target="243">
        <viz:color r="128" g="128" b="128"></viz:color>
        <attvalues></attvalues>
      </edge>
      <edge id="87--&gt;363" source="87" target="363">
        <viz:color r="128" g="128" b="128"></viz:color>
        <attvalues></attvalues>
      </edge>
      <edge id="71--&gt;204" source="71" target="204">
        <viz:color r="128" g="128" b="128"></viz:color>
        <attvalues></attvalues>
      </edge>
      <edge id="71--&gt;346" source="71" target="346">
        <viz:color r="128" g="128" b="128"></viz:color>
        <attvalues></attvalues>
      </edge>
      <edge id="71--&gt;185" source="71" target="185">
        <viz:color r="128" g="128" b="128"></viz:color>
        <attvalues></attvalues>
      </edge>
      <edge id="71--&gt;305" source="71" target="305">
        <viz:color r="128" g="128" b="128"></viz:color>
        <attvalues></attvalues>
      </edge>
      <edge id="71--&gt;48" source="71" target="48">
        <viz:color r="128" g="128" b="128"></viz:color>
        <attvalues></attvalues>
      </edge>
      <edge id="71--&gt;294" source="71" target="294">
        <viz:color r="128" g="128" b="128"></viz:color>
        <attvalues></attvalues>
      </edge>
      <edge id="71--&gt;243" source="71" target="243">
        <viz:color r="128" g="128" b="128"></viz:color>
        <attvalues></attvalues>
      </edge>
      <edge id="72--&gt;175" source="72" target="175">
        <viz:color r="128" g="128" b="128"></viz:color>
        <attvalues></attvalues>
      </edge>
      <edge id="72--&gt;185" source="72" target="185">
        <viz:color r="128" g="128" b="128"></viz:color>
        <attvalues></attvalues>
      </edge>
      <edge id="72--&gt;111" source="72" target="111">
        <viz:color r="128" g="128" b="128"></viz:color>
        <attvalues></attvalues>
      </edge>
      <edge id="72--&gt;29" source="72" target="29">
        <viz:color r="128" g="128" b="128"></viz:color>
        <attvalues></attvalues>
      </edge>
      <edge id="72--&gt;392" source="72" target="392">
        <viz:color r="128" g="128" b="128"></viz:color>
        <attvalues></attvalues>
      </edge>
      <edge id="72--&gt;387" source="72" target="387">
        <viz:color r="128" g="128" b="128"></viz:color>
        <attvalues></attvalues>
      </edge>
      <edge id="72--&gt;375" source="72" target="375">
        <viz:color r="128" g="128" b="128"></viz:color>
        <attvalues></attvalues>
      </edge>
      <edge id="44--&gt;346" source="44" target="346">
        <viz:color r="128" g="128" b="128"></viz:color>
        <attvalues></attvalues>
      </edge>
      <edge id="44--&gt;464" source="44" target="464">
        <viz:color r="128" g="128" b="128"></viz:color>
        <attvalues></attvalues>
      </edge>
      <edge id="44--&gt;261" source="44" target="261">
        <viz:color r="128" g="128" b="128"></viz:color>
        <attvalues></attvalues>
      </edge>
      <edge id="44--&gt;253" source="44" target="253">
        <viz:color r="128" g="128" b="128"></viz:color>
        <attvalues></attvalues>
      </edge>
      <edge id="486--&gt;29" source="486" target="29">
        <viz:color r="128" g="128" b="128"></viz:color>
        <attvalues></attvalues>
      </edge>
      <edge id="486--&gt;373" source="486" target="373">
        <viz:color r="128" g="128" b="128"></viz:color>
        <attvalues></attvalues>
      </edge>
      <edge id="486--&gt;239" source="486" target="239">
        <viz:color r="128" g="128" b="128"></viz:color>
        <attvalues></attvalues>
      </edge>
      <edge id="488--&gt;209" source="488" target="209">
        <viz:color r="128" g="128" b="128"></viz:color>
        <attvalues></attvalues>
      </edge>
      <edge id="488--&gt;187" source="488" target="187">
        <viz:color r="128" g="128" b="128"></viz:color>
        <attvalues></attvalues>
      </edge>
      <edge id="488--&gt;428" source="488" target="428">
        <viz:color r="128" g="128" b="128"></viz:color>
        <attvalues></attvalues>
      </edge>
      <edge id="488--&gt;115" source="488" target="115">
        <viz:color r="128" g="128" b="128"></viz:color>
        <attvalues></attvalues>
      </edge>
      <edge id="488--&gt;305" source="488" target="305">
        <viz:color r="128" g="128" b="128"></viz:color>
        <attvalues></attvalues>
      </edge>
      <edge id="488--&gt;48" source="488" target="48">
        <viz:color r="128" g="128" b="128"></viz:color>
        <attvalues></attvalues>
      </edge>
      <edge id="488--&gt;360" source="488" target="360">
        <viz:color r="128" g="128" b="128"></viz:color>
        <attvalues></attvalues>
      </edge>
      <edge id="288--&gt;204" source="288" target="204">
        <viz:color r="128" g="128" b="128"></viz:color>
        <attvalues></attvalues>
      </edge>
      <edge id="288--&gt;111" source="288" target="111">
        <viz:color r="128" g="128" b="128"></viz:color>
        <attvalues></attvalues>
      </edge>
      <edge id="288--&gt;191" source="288" target="191">
        <viz:color r="128" g="128" b="128"></viz:color>
        <attvalues></attvalues>
      </edge>
      <edge id="288--&gt;74" source="288" target="74">
        <viz:color r="128" g="128" b="128"></viz:color>
        <attvalues></attvalues>
      </edge>
      <edge id="288--&gt;48" source="288" target="48">
        <viz:color r="128" g="128" b="128"></viz:color>
        <attvalues></attvalues>
      </edge>
      <edge id="288--&gt;397" source="288" target="397">
        <viz:color r="128" g="128" b="128"></viz:color>
        <attvalues></attvalues>
      </edge>
      <edge id="287--&gt;314" source="287" target="314">
        <viz:color r="128" g="128" b="128"></viz:color>
        <attvalues></attvalues>
      </edge>
      <edge id="287--&gt;305" source="287" target="305">
        <viz:color r="128" g="128" b="128"></viz:color>
        <attvalues></attvalues>
      </edge>
      <edge id="287--&gt;502" source="287" target="502">
        <viz:color r="128" g="128" b="128"></viz:color>
        <attvalues></attvalues>
      </edge>
      <edge id="287--&gt;94" source="287" target="94">
        <viz:color r="128" g="128" b="128"></viz:color>
        <attvalues></attvalues>
      </edge>
      <edge id="287--&gt;255" source="287" target="255">
        <viz:color r="128" g="128" b="128"></viz:color>
        <attvalues></attvalues>
      </edge>
      <edge id="482--&gt;346" source="482" target="346">
        <viz:color r="128" g="128" b="128"></viz:color>
        <attvalues></attvalues>
      </edge>
      <edge id="482--&gt;115" source="482" target="115">
        <viz:color r="128" g="128" b="128"></viz:color>
        <attvalues></attvalues>
      </edge>
      <edge id="482--&gt;191" source="482" target="191">
        <viz:color r="128" g="128" b="128"></viz:color>
        <attvalues></attvalues>
      </edge>
      <edge id="482--&gt;27" source="482" target="27">
        <viz:color r="128" g="128" b="128"></viz:color>
        <attvalues></attvalues>
      </edge>
      <edge id="482--&gt;475" source="482" target="475">
        <viz:color r="128" g="128" b="128"></viz:color>
        <attvalues></attvalues>
      </edge>
      <edge id="482--&gt;104" source="482" target="104">
        <viz:color r="128" g="128" b="128"></viz:color>
        <attvalues></attvalues>
      </edge>
      <edge id="482--&gt;397" source="482" target="397">
        <viz:color r="128" g="128" b="128"></viz:color>
        <attvalues></attvalues>
      </edge>
      <edge id="482--&gt;387" source="482" target="387">
        <viz:color r="128" g="128" b="128"></viz:color>
        <attvalues></attvalues>
      </edge>
      <edge id="496--&gt;208" source="496" target="208">
        <viz:color r="128" g="128" b="128"></viz:color>
        <attvalues></attvalues>
      </edge>
      <edge id="496--&gt;104" source="496" target="104">
        <viz:color r="128" g="128" b="128"></viz:color>
        <attvalues></attvalues>
      </edge>
      <edge id="496--&gt;266" source="496" target="266">
        <viz:color r="128" g="128" b="128"></viz:color>
        <attvalues></attvalues>
      </edge>
      <edge id="493--&gt;515" source="493" target="515">
        <viz:color r="128" g="128" b="128"></viz:color>
        <attvalues></attvalues>
      </edge>
      <edge id="493--&gt;441" source="493" target="441">
        <viz:color r="128" g="128" b="128"></viz:color>
        <attvalues></attvalues>
      </edge>
      <edge id="493--&gt;385" source="493" target="385">
        <viz:color r="128" g="128" b="128"></viz:color>
        <attvalues></attvalues>
      </edge>
      <edge id="493--&gt;235" source="493" target="235">
        <viz:color r="128" g="128" b="128"></viz:color>
        <attvalues></attvalues>
      </edge>
      <edge id="297--&gt;168" source="297" target="168">
        <viz:color r="128" g="128" b="128"></viz:color>
        <attvalues></attvalues>
      </edge>
      <edge id="297--&gt;180" source="297" target="180">
        <viz:color r="128" g="128" b="128"></viz:color>
        <attvalues></attvalues>
      </edge>
      <edge id="297--&gt;191" source="297" target="191">
        <viz:color r="128" g="128" b="128"></viz:color>
        <attvalues></attvalues>
      </edge>
      <edge id="297--&gt;199" source="297" target="199">
        <viz:color r="128" g="128" b="128"></viz:color>
        <attvalues></attvalues>
      </edge>
      <edge id="297--&gt;373" source="297" target="373">
        <viz:color r="128" g="128" b="128"></viz:color>
        <attvalues></attvalues>
      </edge>
      <edge id="353--&gt;168" source="353" target="168">
        <viz:color r="128" g="128" b="128"></viz:color>
        <attvalues></attvalues>
      </edge>
      <edge id="353--&gt;54" source="353" target="54">
        <viz:color r="128" g="128" b="128"></viz:color>
        <attvalues></attvalues>
      </edge>
      <edge id="353--&gt;294" source="353" target="294">
        <viz:color r="128" g="128" b="128"></viz:color>
        <attvalues></attvalues>
      </edge>
    </edges>
  </graph>
</gexf>
